vhdl work "mux_2to1_1b.vhd"
vhdl work "tag_memory.vhd"
vhdl work "sign_extend_8to16.vhd"
vhdl work "sign_extend_4to16.vhd"
vhdl work "register_file.vhd"
vhdl work "program_counter.vhd"
vhdl work "mux_2to1_8b.vhd"
vhdl work "mux_2to1_4b.vhd"
vhdl work "mux_2to1_16b.vhd"
vhdl work "instruction_memory.vhd"
vhdl work "data_memory.vhd"
vhdl work "control_unit.vhd"
vhdl work "alu_16b.vhd"
vhdl work "adder_8b.vhd"
vhdl work "single_cycle_core.vhd"
